atraccion funcionDummy():
    🎢longitud = 0
    🎢latitud = 👽Holaaa👽
    
    🎢tmp = 0

    disco(🎢tmp);

🎢tmp = 45

atraccion calculaLongitud(🎢tmp):
    🎢longitud = 0
	🎢l = 1
    🎢longitud = 🎢l ➕ 🎢tmp
    🎢variableDummy = funcionDummy()
    disco(🎢longitud);

