atraccion ejemplo2(🎢num):

    📢Calcular la suma de divisores📢

    🎢divisor = 1
    🎢total = 0
    🎢textoResultado = 👽NO es un número perfecto👽

    📢 Sumar divisores 📢 

    🎢total ➕= 🎢divisor ✖ 🎢num ➗➗ 🎢divisor

    🎢divisor ➕= disco(🎢total)

    📢Comprobar si es un número perfecto📢
    🎢total ✖= 🎢total ➗➗ 🎢num

    boleteria(👽El resultado final es👽)

    disco(🎢total);
